module gitlab.com/manhrev/chat-app1

go 1.18

require (
	entgo.io/ent v0.10.1
	github.com/go-sql-driver/mysql v1.6.0
	github.com/golang-jwt/jwt v3.2.2+incompatible
	github.com/gorilla/websocket v1.5.0
	github.com/improbable-eng/grpc-web v0.15.0
	google.golang.org/grpc v1.47.0
	google.golang.org/protobuf v1.28.0
)

require (
	ariga.io/atlas v0.3.7-0.20220303204946-787354f533c3 // indirect
	github.com/agext/levenshtein v1.2.1 // indirect
	github.com/apparentlymart/go-textseg/v13 v13.0.0 // indirect
	github.com/cenkalti/backoff/v4 v4.1.1 // indirect
	github.com/desertbit/timer v0.0.0-20180107155436-c41aec40b27f // indirect
	github.com/go-openapi/inflect v0.19.0 // indirect
	github.com/golang/protobuf v1.5.2 // indirect
	github.com/google/go-cmp v0.5.6 // indirect
	github.com/google/uuid v1.3.0 // indirect
	github.com/hashicorp/hcl/v2 v2.10.0 // indirect
	github.com/klauspost/compress v1.11.7 // indirect
	github.com/mitchellh/go-wordwrap v0.0.0-20150314170334-ad45545899c7 // indirect
	github.com/rs/cors v1.7.0 // indirect
	github.com/zclconf/go-cty v1.8.0 // indirect
	golang.org/x/mod v0.5.1 // indirect
	golang.org/x/net v0.0.0-20210805182204-aaa1db679c0d // indirect
	golang.org/x/sys v0.0.0-20211205182925-97ca703d548d // indirect
	golang.org/x/text v0.3.7 // indirect
	google.golang.org/genproto v0.0.0-20210126160654-44e461bb6506 // indirect
	nhooyr.io/websocket v1.8.6 // indirect
)
